Pregunta 1
==========

Apartat A
---------

10011101 = 1 + 4 + 8 + 16 + 128 = 157

Apartat B
---------

1100000011100001 = 1 + 32 + 64 + 128 + 16384 + 32768 = 49377

Apartat C
---------

0000000000101010 = 2 + 8 + 32 = 42

Pregunta 2
==========

0000 0
0001 1
0010 2
0011 3
0100 4
0101 5
0110 6
0111 7
1000 8
1001 9
1010 10
1011 11
1100 12
1101 13
1110 14
1111 15

Pregunta 3
==========

NOT

x w
0 1
1 0

AND

x y w
0 0 0
0 1 0
1 0 0
1 1 1

OR

x y w
0 0 0
0 1 1
1 0 1
1 1 1

Pregunta 4
==========

Apartat A
---------

x y a b c d e w
0 0 1 1 1 0 0 0
0 1 1 0 1 0 1 1
1 0 0 1 1 1 0 1
1 1 0 0 0 0 0 0

Apartat B
---------

x y w
0 0 0
0 1 1
1 0 1
1 1 0

Pregunta 5
==========

x y !x !y !x+!y !yx (!x+!y)y w
0 0 1  1  1     0    0       0
0 1 1  0  1     0    1       1
1 0 0  1  1     1    0       1
1 1 0  0  0     0    0       0
