Pregunta 1
==========

Pregunta 2
==========

Pregunta 3
==========

Apartat A
---------

d4  d3  d2  d1  d0
220 230 190 150 110

Apartat B
---------

d4  d3  d2  d1  d0
0   100 100 100 100

Pregunta 4
==========
